Forecasting Binary Time Series • fable.binary
…
#> # A tibble: 1 × 6
#>   .model inputs hidden_nodes weights repeats sigma2
#>   <chr>   <dbl>        <dbl>   <int>   <int>  <dbl>
#> 1 nn          2            2       9      20  0.227
fit |> select(nn) |> report()
#> Series: Wet
#> Model: BINNET: 2
#>
#> Average of 20 networks, each of which is
#> a 2-2-1 network with 9 weights
#> options were -
#>
#> sigma^2 estimated as 0.2269
augment(fit)
#> # A tsibble: 8,644 x 6 [1D]
#> # Key:       .model [2]
#>    .model Date       Wet   .fitted .resid .innov
#>    <chr>  <date>     <lgl>   <dbl>  <dbl>  <dbl>
#>  1 nn     2000-01-01 TRUE    0.255  0.745  0.745
#>  2 nn     2000-01-02 FALSE   0.254 -0.254 -0.254
#>  3 nn     2000-01-03 FALSE   0.253 -0.253 -0.253
#>  4 nn     2000-01-04 TRUE    0.252  0.748  0.748
#>  5 nn     2000-01-05 TRUE    0.251  0.749  0.749
#>  6 nn     2000-01-06 FALSE   0.250 -0.250 -0.250
#>  7 nn     2000-01-07 FALSE   0.249 -0.249 -0.249
#>  8 nn     2000-01-08 FALSE   0.248 -0.248 -0.248
#>  9 nn     2000-01-09 FALSE   0.248 -0.248 -0.248
#> 10 nn     2000-01-10 TRUE    0.247  0.753  0.753
#> # ℹ 8,634 more rows
…
